…
```r
top_100 %>%
  top_n(10) %>%
  filter(Rank %in% 1:10) %>%
  unnest_tokens(word, Lyrics, token = "words") %>%
  filter(!word %in% stop_words$word, str_detect(word, "[a-z]"))
```

```
## Selecting by Source
```

```
## # A tibble: 1,777 x 6
##     Rank Song        Artist                            Year Source word    
##    <dbl> <chr>       <chr>                            <dbl>  <dbl> <chr>   
##  1     1 uptown funk mark ronson featuring bruno mars  2015      1 hit     
##  2     1 uptown funk mark ronson featuring bruno mars  2015      1 ice     
##  3     1 uptown funk mark ronson featuring bruno mars  2015      1 cold    
##  4     1 uptown funk mark ronson featuring bruno mars  2015      1 michelle
##  5     1 uptown funk mark ronson featuring bruno mars  2015      1 pfeiffer
##  6     1 uptown funk mark ronson featuring bruno mars  2015      1 white   
##  7     1 uptown funk mark ronson featuring bruno mars  2015      1 gold    
##  8     1 uptown funk mark ronson featuring bruno mars  2015      1 hood    
##  9     1 uptown funk mark ronson featuring bruno mars  2015      1 girls   
## 10     1 uptown funk mark ronson featuring bruno mars  2015      1 girls   
## # … with 1,767 more rows
```
…
ten_top %>%
  group_by(word) %>%
  summarise(uses=n()) %>%
  arrange(desc(uses = n()))
```

```
## `summarise()` ungrouping output (override with `.groups` argument)
```

```
## # A tibble: 757 x 2
##    word       uses
##    <chr>     <int>
##  1 70s           1
##  2 aah           2
##  3 abel          1
##  4 absolutes     1
##  5 accent        1
##  6 accused       1
##  7 acoustic      1
##  8 affection     1
##  9 afraid        1
## 10 againaah      2
## # … with 747 more rows
```
…
